{
	"name":        "getDatetimeValueReport",
	"description": "Report: datetime values Graphic",

	"file":        "sql/getDatetimeValueReport.sql",
	"primary key": [
		"EventDateTime"
	],
	"storage": "report",
	"savehistoryrecords": false,

	"parameters": [
	],

	"component": {
		"name": "dateLineReport",
		"struct": {
			"EventDateTime": {
				"source": "EventDateTime"
			},
			"EventValue": {
				"source": "EventValue"
			}
		}
	}
}
