{
	"name":        "getTwoXYLinesReport",
	"description": "Report: two XY lines Graphic",

	"file":        "sql/getTwoXYLinesReport.sql",
	"primary key": [
		"idLine",
		"idPoint"
	],
	"storage": "report",
	"savehistoryrecords": false,

	"parameters": [
	],

	"component": {
		"name": "twoXYLinesReport",
		"struct": {
			"line": {
				"source": "idLine"
			},
			"x": {
				"source": "XValue"
			},
			"y": {
				"source": "YValue"
			}
		}
	}
}
