{
	"name":        "GraphicalModule",
	"type":        "mssql",
	"description": "module to demonstrate graphic",
	"reports": {
		"XY Lines": [
			"reports/mssql/getXYReport",
			"reports/mssql/getTwoXYLinesReport"
		],
		"Date Lines": [
			"reports/mssql/getDatetimeValueReport"
		],
		"Bars": [
			"reports/mssql/getBarReport"
		]
	}
}
