{
	"name":        "getInstanceCPUUtilization",
	"description": "CPU utilization",

	"file":        "sql/getInstanceCPUUtilization.sql",
	"primary key": [
		"ServerName",
		"RecordTimeStamp",
		"RecordRingBufferType"
	],
	"storage": "report",
	"savehistoryrecords": false,

	"parameters": [
	],

	"component": {
		"name": "twoDateLineReport",
		"struct": {
			"EventDateTime": {
				"source": "EventTime"
			},
			"EventValue": { 
				"source": "SQLProcessCPUUtilization" 
			},
			"EventValueOther": { 
				"source": "OtherProcessesCPUUtilization"
			}
		}
	}
}
