{
	"name":        "GraphGetLogSizeOfDatabases",
	"description": "Graph with size of Databases transaction logs",

	"file":        "sql/GetSizeOfDatabases.sql",
	"primary key": [
		"ServerName",
		"DatabaseId"
	],
	"storage": "report",
	"savehistoryrecords": false,

	"parameters": [
	],

	"component": {
		"name": "graphBarDbReport",
		"struct": {
			"DatabaseName": {
				"source": "DatabaseName"
			},
			"DatabaseSizeMB": {
				"source": "DatabaseLogSizeMB"
			}
		}
	}
}
